order-id,order-item-id,purchase-date,payments-date,reporting-date,promise-date,days-past-promise,buyer-email,buyer-name,buyer-phone-number,sku,product-name,quantity-purchased,quantity-shipped,quantity-to-ship,ship-service-level,recipient-name,ship-address-1,ship-address-2,ship-address-3,ship-city,ship-state,ship-postal-code,ship-country,sales-channel,Sub source ,sku,currency,item-price,item-tax,shipping-price,shipping-tax,PricePerUnit,Unit cost,Sub Total,shipment-status
306-0370594-1956328,41398301868803,2019-08-19T23:47:19+00:00,2019-08-19T23:47:19+00:00,2019-08-20T00:19:00+00:00,2019-08-22T21:59:59+00:00,-3,207tckfrk9s3y78@marketplace.amazon.de,dawidkoszko,4920000000000,DEEURA43075,Jura 66281 Entkalkungstablette 9er (für 3 Entkalkungsvorgänge),1,0,1,Standard,Dawid Koszko,Viktoriastraße,29,,Wiesbaden,Hessen,65189,Germany,Amazon.de,CostBreaker_DE,S-55JU07,EUR,11.46,0,0,0,11.46,11.46,11.46,
306-0370594-1956328,40648640513619,2019-08-19T23:47:19+00:00,2019-08-19T23:47:19+00:00,2019-08-20T00:19:00+00:00,2019-08-22T21:59:59+00:00,-3,207tckfrk9s3y78@marketplace.amazon.de,dawidkoszko,4920000000000,DEEURA53819,Jura Reinigungstabletten 6er Pack,1,0,1,Standard,Dawid Koszko,Viktoriastraße,29,,Wiesbaden,Hessen,65189,Germany,Amazon.de,CostBreaker_DE,S-55JU04,EUR,7.87,0,0,0,7.87,7.87,7.87,
306-7106072-7265926,21306158731403,2019-08-18T09:55:41+00:00,2019-08-18T09:55:41+00:00,2019-08-18T10:25:15+00:00,2019-08-20T21:59:59+00:00,-1,bf1bmsjljz2flyy@marketplace.amazon.de,Ute Weber,,DEEURA37724,Jura 61848 Entkalkungstabletten 9 Tabletten (3 Entkalkungsvorgänge),1,0,1,Standard,Ute Weber,Dorfstr. 55,,,Jerichow,,39319,Germany,Amazon.de,CostBreaker_DE,S-55JU07,EUR,11.79,0,0,0,11.79,11.79,11.79,
028-5160835-1432311,8430728217339,2019-08-18T09:57:02+00:00,2019-08-18T09:57:02+00:00,2019-08-18T10:26:31+00:00,2019-08-20T21:59:59+00:00,-1,ht1dfzzbxq2qtsp@marketplace.amazon.de,Annabel Thierbach,15731426880,DEEURA32338,2x Original HP Tintenpatrone F6U66AE HP 302 HP302 für HP Officejet 3800 Series - BLACK - Leistung: ca. 190 Seiten/5%,2,0,2,Standard,Annabel Thierbach,Im Winkel 3,,,Dahlen,,4774,Germany,Amazon.de,CostBreaker_DE,B-F6U66AE-2,EUR,53.08,0,0,0,26.54,53.08,53.08,
306-2993679-1579548,45629344880731,2019-08-18T09:59:22+00:00,2019-08-18T09:59:22+00:00,2019-08-18T10:28:37+00:00,2019-08-20T21:59:59+00:00,-1,1c8cffb0tdqw2jf@marketplace.amazon.de,Nicole Berghammer,5202490240,DEEURA28261,"Oral-B Ortho Care Aufsteckbürsten, Ideal bei festsitzenden Zahnspangen, 2 Ortho Care Aufsteckbürsten, 1 Interspace Aufsteckbürste",1,0,1,Standard,Nicole Berghammer,Waldstr. 4,,,Oerlinghausen,,33813,Germany,Amazon.de,CostBreaker_DE,S-OB145,EUR,9.74,0,0,0,9.74,9.74,9.74,
306-2727064-5910728,33667051388195,2019-08-18T10:01:18+00:00,2019-08-18T10:01:18+00:00,2019-08-18T10:31:43+00:00,2019-08-20T21:59:59+00:00,-1,q5qt9r8k7zpzr2c@marketplace.amazon.de,Regina Schick,2774800856,DEEURA55530,Auslaufmodell Gillette Venus Klingen 4 Stück,1,0,1,Standard,Regina Schick,Staffelböllstr. 1,,,Eschenburg,Hessen,35713,Germany,Amazon.de,CostBreaker_DE,S-GILVEN10X4#MC,EUR,7.64,0,0,0,7.64,7.64,7.64,
303-5310057-9913914,8975777568043,2019-08-18T10:19:03+00:00,2019-08-18T10:19:03+00:00,2019-08-18T10:46:38+00:00,2019-08-20T21:59:59+00:00,-1,mz76yvkfgmzt5cp@marketplace.amazon.de,Jens Möhlmann,440860628,DEEURA53794,"Oral-B CrossAction Aufsteckbürsten, Borsten im 16-Grad Winkel für eine überlegene Reinigung, 8+2 Stück",1,0,1,Standard,Jens Möhlmann,Im Apfelhof 23,,,Hude,Nds,27798,Germany,Amazon.de,CostBreaker_DE,S-L337804#OEGE,EUR,24.99,0,0,0,24.99,24.99,24.99,
306-7204541-6885925,32666472064131,2019-08-18T10:37:25+00:00,2019-08-18T10:37:25+00:00,2019-08-18T11:05:54+00:00,2019-08-20T21:59:59+00:00,-1,n6thyjqgxj9x7wh@marketplace.amazon.de,Stefan Stendel,307034272,DEEURA31597,Delonghi DLS C002 ECAM Wasserfilter - 4-er Set,1,0,1,Standard,Stefan Stendel Postnr. 47670824,"Gradestr. 51, Packstation 259",,,Berlin,Berlin,12347,Germany,Amazon.de,CostBreaker_DE,B-55DL15-4,EUR,27.99,0,0,0,27.99,27.99,27.99,
306-5369286-8311554,42862147780099,2019-08-18T10:39:30+00:00,2019-08-18T10:39:30+00:00,2019-08-18T11:09:30+00:00,2019-08-20T21:59:59+00:00,-1,2nsvbyc05ymjkk8@marketplace.amazon.de,Danielle Kolander,42823848,DEEURA54407,Original Tinte Canon PG-545BK 8287B001 - 1 Tinten-Patrone - Schwarz - 180 Seiten - 8 ml,2,0,2,Standard,Danielle Kolander,Stuhmer Str 3a,,,sittensen,Niedersachsen,27419,Germany,Amazon.de,CostBreaker_DE,S-8287B001,EUR,32.32,0,0,0,16.16,32.32,32.32,
028-2671941-0518707,5390170010635,2019-08-18T11:02:27+00:00,2019-08-18T11:02:27+00:00,2019-08-18T11:32:50+00:00,2019-08-20T21:59:59+00:00,-1,6149wmrwx86hs7j@marketplace.amazon.de,Uwe Koslowski,0271/484287,DEEURA31418,"2 x Wahl 3310 Öl für Haarschneidemaschinen, 113-ml-Flasche",1,0,1,Standard,Uwe Koslowski,Kampenstraße 70,,,Siegen,,57072,Germany,Amazon.de,CostBreaker_DE,B-3310#RSHM-2,EUR,8.11,0,0,0,8.11,8.11,8.11,
302-3152119-3980363,68715862870867,2019-08-18T11:17:18+00:00,2019-08-18T11:17:18+00:00,2019-08-18T11:47:32+00:00,2019-08-20T21:59:59+00:00,-1,0w12kphf8p3sx7y@marketplace.amazon.de,Torsten Lohberg,02065 839 740,DEEURA46519,2x 10 Tabletten Philips Saeco RI9125/24 Kaffeefettlöser Coffee Clean,1,0,1,Standard,Torsten Lohberg,Güterstr. 63g,,,Duisburg,,47228,Germany,Amazon.de,CostBreaker_DE,B-55SA09-2,EUR,9.99,0,0,0,9.99,9.99,9.99,
306-2326464-1533119,64962464862067,2019-08-18T11:48:29+00:00,2019-08-18T11:48:29+00:00,2019-08-18T12:17:48+00:00,2019-08-20T21:59:59+00:00,-1,bzbsd4z9ggf909f@marketplace.amazon.de,silke yattara,05242-407959,DEEURA37728,Bosch Siemens 00311821 Entkalkungstabletten (3 Tabletten à 36g),1,0,1,Standard,silke yattara,Auf der Schulenburg 2a,,,Rheda-Wiedenbrück,Nordrhein-Westfalen,33378,Germany,Amazon.de,CostBreaker_DE,S-55BS411,EUR,6.99,0,0,0,6.99,6.99,6.99,
304-5763222-2430731,61126789089219,2019-08-18T11:55:57+00:00,2019-08-18T11:55:57+00:00,2019-08-18T12:25:27+00:00,2019-08-20T21:59:59+00:00,-1,518hnkxy9pdw38v@marketplace.amazon.de,Alexander Schäfer,06081/946125,DEEURA15244,HP 62 Black Original Ink Cartridge,1,0,1,Standard,Alexander Schäfer,Alter Anspacher Weg 7,,,Wehrheim-Obernhain,,61273,Germany,Amazon.de,CostBreaker_DE,S-C2P04AE,EUR,15.87,0,0,0,15.87,15.87,15.87,
306-8858092-2353132,36214533216227,2019-08-18T11:58:37+00:00,2019-08-18T11:58:37+00:00,2019-08-18T12:26:53+00:00,2019-08-20T21:59:59+00:00,-1,d7kmvdkrbblly3c@marketplace.amazon.de,Andreas Nothaft,06239-9953-181,DEEURA34545,Ersatzbürsten Für Die Elektrische Zahnbürste Oral-B Sensi UltraThin,1,0,1,Standard,Andreas Nothaft,Hobbybedarf,In den Moltersgärten 13a,,Großniedesheim,Rheinland-Pfalz,67259,Germany,Amazon.de,CostBreaker_DE,S-81681330#DCS,EUR,15.05,0,0,0,15.05,15.05,15.05,
306-3372629-8109950,58462969631867,2019-08-18T11:58:48+00:00,2019-08-18T11:58:48+00:00,2019-08-18T12:29:09+00:00,2019-08-20T21:59:59+00:00,-1,345vtqbmt7qr1j2@marketplace.amazon.de,Gabi Lindhoff,424284159,DEEURA37728,Bosch Siemens 00311821 Entkalkungstabletten (3 Tabletten à 36g),1,0,1,Standard,Gabi Lindhoff,Am Nordfeld 7,,,Syke,Niedersachsen,28857,Germany,Amazon.de,CostBreaker_DE,S-55BS411,EUR,6.99,0,0,0,6.99,6.99,6.99,
306-4785072-0821165,1559458339091,2019-08-18T12:48:05+00:00,2019-08-18T12:48:05+00:00,2019-08-18T13:17:48+00:00,2019-08-20T21:59:59+00:00,-1,r3sh5f5srf57007@marketplace.amazon.de,wiesmeier dr.wolfgang,08821/81419,DEEURA55729,"Oral-B Precision Clean Aufsteckbürsten, Umschließt jeden Zahn einzeln für eine optimale Reinigung, 8+2 Stück",1,0,1,Standard,wolfgang wiesmeier dr.,St.-Martin-Str. 75,,,Garmisch-Partenkirchen,Bayern,82467,Germany,Amazon.de,CostBreaker_DE,S-L7498#OEGE,EUR,21.38,0,0,0,21.38,21.38,21.38,
