*System SKU,*Add/Edit,*Product Title,Brand,UPC/Barcode,Category,Weight(kg),Shipping Length(mm),Shipping Width(mm),Shipping Height(mm),Dangerous Good? Route(1=road & 2=air),Fragile Mark,HSN code,Country of origin,Export Invoice Title
B-17137TEST011-2,add,Test Title 01,Nintendo,,Video Games,0.52,168,105,13,1,n,4202990090,China,Console Game
S-17137TEST012,add,Legend of test 6 Test Title 02,New,,Video Games,0.52,168,105,13,1,n,4202990090,China,Console Game
B-17137TEST013,add,Legend of test 7,Nintendo,445496424435,Video Games,0.52,168,105,13,1,n,4202990090,China,Console Game
B-17137TEST014,edit,Legend of test 8,Nintendo,45496424435,Video Games,0.52,168,105,13,1,n,4202990090,China,Console Game
B-17137TEST015,add,Legend of Zelda L9,Nintendo,45496424435,Video Games,0.52,168,105,13,1,n,4202990090,China,Console Game
,,,,,,,,,,,,,,
,,,,,,,,,,,,,,
,,,,,,,,,,,,,,
,,,,,,,,,,,,,,
,,,,,,,,,,,,,,
