System SKU,Asin,CostBreaker_UK,CostBreaker_ES,CostBreaker_FR,CostBreaker_DE,CostBreaker_IT,CostBreaker_NL,CostBreaker_CA,CostBreaker_US,CostBreaker_USABuyer,CostBreaker_UKFBA,CostBreaker_DEFBA,CostBreaker_ESFBA,CostBreaker_FRFBA,CostBreaker_ITFBA,Marec_DE,Marec_DEFBA,Marec_ES,Marec_FR,Marec_FRFBA,Marec_IT,Marec_ITFBA,Marec_NL,Marec_UK,Marec_UKFBA,Rainbow Retail,RAINBOW RETAIL DE,Rainbow_DE_FBA,Rainbow_FRFBA,Rainbow_Retail_ES,Rainbow_Retail_FR,Rainbow_Retail_IT,Rainbow_UK_FBA,Cdiscount_FR,Real_DE,eBay,Onbuy,Flubit,Fnac,Fyndiq,Rainbow_ES_FBA,Rainbow_IT_FBA
S-17137_4,B07SMRLNJH,y,n,y,n,,,,,,,,,,,,,y,Y,Y,y,n,,,,y,y,,,y,,y,Y,,,,,,,N,,
S-17137_4,B07SMRLNJH1234455,y,n,y,n,,,,,,,,,,,,,y,Y,Y,y,n,,,,y,y,,,y,,y,Y,,,,,,,N,,
