System SKU,Asin No,Product Title,Brand,Description,UPC/Barcode,Image filename,Weight(kg),Category,Purchase Price DBP,Length(mm),Width(mm),Height(mm),Status,Model No,Manufacturer part num,Frezile Mark,Min Quantity,Current Stock Level,Route(1=road & 2=air),Country of origin,UK HSN code,DE HSN cod,ES HSN cod,FR HSN cod,IT HSN cod,US HSN cod,CA HSN cod,Referral Category AWS,Referral-fee,Margin(%),Supplier Code,Supplier Product Code,CostBreaker_UK,CostBreaker_ES,CostBreaker_FR,CostBreaker_DE,CostBreaker_IT,CostBreaker_NL,CostBreaker_CA,CostBreaker_US,CostBreaker_USABuyer,CostBreaker_UKFBA,CostBreaker_DEFBA,CostBreaker_ESFBA,CostBreaker_FRFBA,CostBreaker_ITFBA,Marec_DE,Marec_DEFBA,Marec_ES,Marec_FR,Marec_FRFBA,Marec_IT,Marec_ITFBA,Marec_NL,Marec_UK,Marec_UKFBA,Rainbow Retail,RAINBOW RETAIL DE,Rainbow_DE_FBA,Rainbow_FRFBA,Rainbow_Retail_ES,Rainbow_Retail_FR,Rainbow_Retail_IT,Rainbow_UK_FBA,Cdiscount_FR,Real_DE,eBay,Onbuy,Flubit,Fnac,Fyndiq
S-0621B026,B0088PUEPK,Toshiba DT01ACA100 1TB SATA 6GB/s 7200RPM 3.5 Inch Internal Hard Drive,Toshiba,Toshiba DT01ACA100 1TB SATA 6GB/s 7200RPM 3.5 Inch Internal Hard Drive,5050000000000,BI-20.jpg,0.5,Computers & Accessories,29.5,195,81,152,1,,,,0,0,2,,T10010101010,,,,,,,15Percent,15,10,AFB,T01ACA109,,,,Y,,,,,,,,,,,,,,,,,,,,,,,,,,,,,,,,,,,N
S-0628B001,B0088PUEPK,Toshiba DT01ACA100 1TB SATA 6GB/s 7200RPM 3.5 Inch Internal Hard Drive,Toshiba,Toshiba DT01ACA100 1TB SATA 6GB/s 7200RPM 3.5 Inch Internal Hard Drive,5050000000000,BI-20.jpg,0.5,Computers & Accessories,29.5,195,81,152,1,,,,0,0,2,,T10010101010,,,,,,,12Percent,15,10,AFB,T01ACA109,,,,Y,,,,,,,,,,,,,,,,,,,,,,,,,,,,,,,,,,,N
S-0620B001,B0088PUEPK,Toshiba DT01ACA100 1TB SATA 6GB/s 7200RPM 3.5 Inch Internal Hard Drive,Toshiba,Toshiba DT01ACA100 1TB SATA 6GB/s 7200RPM 3.5 Inch Internal Hard Drive,5050000000000,BI-20.jpg,0.5,Computers & Accessories,29.5,195,81,152,1,,,,0,0,2,,T10010101010,,,,,,,15Percent,15,10,AFB,T01ACA109,,,,Y,,,,,,,,,,,,,,,,,,,,,,,,,,,,,,,,,,,N
S-22916012LA,B0088PUEPK,Toshiba DT01ACA100 1TB SATA 6GB/s 7200RPM 3.5 Inch Internal Hard Drive,Toshiba,Toshiba DT01ACA100 1TB SATA 6GB/s 7200RPM 3.5 Inch Internal Hard Drive,5050000000000,BI-20.jpg,0.5,Computers & Accessories,29.5,195,81,152,1,,,,0,0,2,,T10010101010,,,,,,,12Percent,15,10,AFB,T01ACA109,,,,Y,,,,,,,,,,,,,,,,,,,,,,,,,,,,,,,,,,,N
B-22916012LA-6,B0088PUEPK,Toshiba DT01ACA100 1TB SATA 6GB/s 7200RPM 3.5 Inch Internal Hard Drive,Toshiba,Toshiba DT01ACA100 1TB SATA 6GB/s 7200RPM 3.5 Inch Internal Hard Drive,5050000000000,BI-20.jpg,0.5,Computers & Accessories,29.5,195,81,152,1,,,,0,0,2,,T10010101010,,,,,,,12Percent,15,10,AFB,T01ACA109,,,,Y,,,,,,,,,,,,,,,,,,,,,,,,,,,,,,,,,,,N
