"OrderId","Split OrderId","ReceivedDate","ReferenceNum","Source","SubSource","FullName","Country","SKU","Quantity","Service Provider","Servece code","OpenOrderDate","Move Date"
"3075110","3075110-1","2020-08-31T18:19:31.013Z","026-9534289-8422768","AMAZON","Marec_uk","geraint lewis","United Kingdom","1XS-LN920BBEGWW","1","Royalmail","large_letter_500_48","2021-01-13 08:20:23","2020-09-28 12:51:34"
"3024446","","2020-12-30 11:42:26","DRAFT","DIRECT","","","Jersey","","","","","",""
"315213801132021","315213801132021-1","2021-01-13 08:24:44","3.152138202101131E+20","AMAZON","CostBreaker_UK","Rigby McLoughlin","United Kingdom","1XS-F91WG9QEF","1","Royalmail","parcel_1_48","2021-01-13 08:24:44","2021-01-13 08:24:44"
"315153201132021","315153201132021-1","2021-01-13 12:00:20","3.151532202101131E+20","AMAZON","CostBreaker_UK","Sharmin Chowdhury","United Kingdom","1XS-C13T16264012","1","whistl","P250","2021-01-13 12:00:20","2021-01-13 12:00:20"
"338721501142021","338721501142021-1","2021-01-14 05:55:14","3.387215202101141E+20","AMAZON","CostBreaker_UK","Jonathan Rowley","United Kingdom","12XS-OR410","12","whistl","P300","2021-01-14 05:55:14","2021-01-14 05:55:14"
"317631301142021","317631301142021-1","2021-01-14 06:19:46","3.176313202101141E+20","AMAZON","CostBreaker_UK","Pia Hallstrom","United Kingdom","3XS-C2P07AE","3","whistl","P250","2021-01-14 06:19:46","2021-01-14 06:19:46"
"324886301142021","324886301142021-1","2021-01-14 07:12:23","3.248863202101141E+20","AMAZON","Marec_DE","Hrvoje Jularic","Germany","1XS-HW059200EHQ,1XS-HWAP51","2","PostNL","sizee-nonboxable","2021-01-14 07:12:23","2021-01-14 07:12:23"
"322554601142021","322554601142021-1","2021-01-14 07:45:16","3.225546202101141E+20","AMAZON","CostBreaker_DE","Nicole Rohner","Germany","1XS-5227B005,1XS-5225B005","2","PostNL","sizee-nonboxable","2021-01-14 07:45:16","2021-01-14 07:45:16"
